Efectos del sol en la tasa de muertes por causa de patologías dermatológicas en España
…
Horas_de_sol <- read_delim(file = "INPUT/DATA/Horas_de_sol csv.csv",
                               delim = ";", escape_double = FALSE, trim_ws = TRUE)

## Rows: 52 Columns: 3
## ── Column specification ────────────────────────────────────────────────────────
## Delimiter: ";"
## chr (1): Provincia
## dbl (2): HorasDeSol, HSP*
## 
## ℹ Use `spec()` to retrieve the full column specification for this data.
## ℹ Specify the column types or set `show_col_types = FALSE` to quiet this message.

Horas_de_sol

## # A tibble: 52 × 3
##    Provincia HorasDeSol `HSP*`
##    <chr>          <dbl>  <dbl>
##  1 Almería         3.30   6.02
##  2 Cádiz           3.32   6   
##  3 Córdoba         3.32   5.9 
##  4 Granada         3.33   5.93
##  5 Huelva          3.53   6.02
##  6 Jaén            3.29   5.82
##  7 Málaga          3.25   5.82
##  8 Sevilla         3.53   5.98
##  9 Huesca          3.10   5.67
## 10 Teruel          3.01   5.11
## # ℹ 42 more rows
…
