…
``` r
Horas_de_sol
```

```
## # A tibble: 52 × 3
##    Provincia HorasDeSol `HSP*`
##    <chr>          <dbl>  <dbl>
##  1 Almería         3.30   6.02
##  2 Cádiz           3.32   6   
##  3 Córdoba         3.32   5.9 
##  4 Granada         3.33   5.93
##  5 Huelva          3.53   6.02
##  6 Jaén            3.29   5.82
##  7 Málaga          3.25   5.82
##  8 Sevilla         3.53   5.98
##  9 Huesca          3.10   5.67
## 10 Teruel          3.01   5.11
## # ℹ 42 more rows
```
…
